{
  "baseUrl": "http://localhost:3000",
  "chromeWebSecurity": false,
  "defaultCommandTimeout": 12000,
  "viewportWidth": 1200,
  "viewportHeight": 660,
  "env": {
    "V5_API": "https://services-test.videoland.com/v5",
    "V5_API_KEY": "Za68q3zpktxJI5AEZYkBPBmc2R9O1Bm3czoNIFKZ",
    "USER_EMAIL": "testvideoland@gmail.com",
    "USER_ID": "10093f284aab453da2dc05aa37dcd74d",
    "USER_VLID": "84dacec15df849ea83e172c5ff4022ebbd45feeda701efeb15fe60374570514753896725f7b25d4284cdccff2c7e9db71ebd5f8efc89ed8c129a0efa712fe175",
    "FACEBOOK_USER_EMAIL": "testvideolandfacebook@gmail.com"
  },
  "projectId": "saik76",
  "video": false,
  "experimentalNetworkStubbing": true
}
